EESchema Schematic File Version 4
EELAYER 30 0
EELAYER END
$Descr A4 11693 8268
encoding utf-8
Sheet 1 2
Title ""
Date ""
Rev ""
Comp ""
Comment1 ""
Comment2 ""
Comment3 ""
Comment4 ""
$EndDescr
$Comp
L power:GND #PWR0101
U 1 1 6114B524
P 1800 2650
F 0 "#PWR0101" H 1800 2400 50  0001 C CNN
F 1 "GND" H 1805 2477 50  0000 C CNN
F 2 "" H 1800 2650 50  0001 C CNN
F 3 "" H 1800 2650 50  0001 C CNN
	1    1800 2650
	1    0    0    -1  
$EndComp
$Comp
L power:GND #PWR0102
U 1 1 6114C181
P 6050 5050
F 0 "#PWR0102" H 6050 4800 50  0001 C CNN
F 1 "GND" H 6055 4877 50  0000 C CNN
F 2 "" H 6050 5050 50  0001 C CNN
F 3 "" H 6050 5050 50  0001 C CNN
	1    6050 5050
	1    0    0    -1  
$EndComp
Text GLabel 5900 2300 0    50   Input ~ 0
DP
Text GLabel 5900 2400 0    50   Input ~ 0
DN
Text GLabel 2500 1450 2    50   Input ~ 0
DP
Text GLabel 2500 1550 2    50   Input ~ 0
DN
$Comp
L power:+5V #PWR0103
U 1 1 611854B1
P 6400 850
F 0 "#PWR0103" H 6400 700 50  0001 C CNN
F 1 "+5V" H 6415 1023 50  0000 C CNN
F 2 "" H 6400 850 50  0001 C CNN
F 3 "" H 6400 850 50  0001 C CNN
	1    6400 850 
	1    0    0    -1  
$EndComp
Wire Wire Line
	6400 850  6400 900 
Wire Wire Line
	6600 900  6600 1000
Wire Wire Line
	6600 900  6700 900 
Wire Wire Line
	6700 900  6700 1000
Connection ~ 6600 900 
Wire Wire Line
	6500 1000 6500 900 
Wire Wire Line
	6500 900  6600 900 
$Comp
L power:+5V #PWR0105
U 1 1 6118F0AC
P 5750 2050
F 0 "#PWR0105" H 5750 1900 50  0001 C CNN
F 1 "+5V" H 5765 2223 50  0000 C CNN
F 2 "" H 5750 2050 50  0001 C CNN
F 3 "" H 5750 2050 50  0001 C CNN
	1    5750 2050
	1    0    0    -1  
$EndComp
Wire Wire Line
	6400 900  6500 900 
Connection ~ 6500 900 
Wire Wire Line
	5750 2100 6000 2100
Wire Wire Line
	6600 5000 6600 5050
Wire Wire Line
	6600 5050 6500 5050
Wire Wire Line
	6500 5050 6500 5000
Wire Wire Line
	6500 5050 6050 5050
Connection ~ 6500 5050
$Comp
L power:GND #PWR0106
U 1 1 611A33B4
P 1700 4850
F 0 "#PWR0106" H 1700 4600 50  0001 C CNN
F 1 "GND" H 1705 4677 50  0000 C CNN
F 2 "" H 1700 4850 50  0001 C CNN
F 3 "" H 1700 4850 50  0001 C CNN
	1    1700 4850
	1    0    0    -1  
$EndComp
$Comp
L power:+5V #PWR0107
U 1 1 611A9411
P 1700 4450
F 0 "#PWR0107" H 1700 4300 50  0001 C CNN
F 1 "+5V" H 1715 4623 50  0000 C CNN
F 2 "" H 1700 4450 50  0001 C CNN
F 3 "" H 1700 4450 50  0001 C CNN
	1    1700 4450
	1    0    0    -1  
$EndComp
Wire Wire Line
	1100 4750 1100 4800
Wire Wire Line
	1500 4800 1500 4750
Wire Wire Line
	1700 4800 1700 4850
Wire Wire Line
	1100 4550 1100 4500
Wire Wire Line
	1500 4550 1500 4500
Wire Wire Line
	1700 4500 1700 4450
$Comp
L Device:C_Small C5
U 1 1 611D0A24
P 1100 4650
F 0 "C5" H 1192 4696 50  0000 L CNN
F 1 "0.1uf" H 1192 4605 50  0000 L CNN
F 2 "Capacitor_SMD:C_0805_2012Metric" H 1100 4650 50  0001 C CNN
F 3 "~" H 1100 4650 50  0001 C CNN
	1    1100 4650
	1    0    0    -1  
$EndComp
$Comp
L Device:C_Small C6
U 1 1 611D34C0
P 1500 4650
F 0 "C6" H 1592 4696 50  0000 L CNN
F 1 "0.1uf" H 1592 4605 50  0000 L CNN
F 2 "Capacitor_SMD:C_0805_2012Metric" H 1500 4650 50  0001 C CNN
F 3 "~" H 1500 4650 50  0001 C CNN
	1    1500 4650
	1    0    0    -1  
$EndComp
$Comp
L Device:R_Small R3
U 1 1 611DC6E1
P 2350 1550
F 0 "R3" V 2450 1550 50  0000 C CNN
F 1 "22" V 2350 1550 50  0000 C CNN
F 2 "Resistor_SMD:R_0805_2012Metric" H 2350 1550 50  0001 C CNN
F 3 "~" H 2350 1550 50  0001 C CNN
	1    2350 1550
	0    1    1    0   
$EndComp
$Comp
L Device:R_Small R2
U 1 1 611DF492
P 2350 1450
F 0 "R2" V 2250 1450 50  0000 C CNN
F 1 "22" V 2350 1450 50  0000 C CNN
F 2 "Resistor_SMD:R_0805_2012Metric" H 2350 1450 50  0001 C CNN
F 3 "~" H 2350 1450 50  0001 C CNN
	1    2350 1450
	0    1    1    0   
$EndComp
Wire Wire Line
	5750 2100 5750 2050
$Comp
L power:GND #PWR0108
U 1 1 6123E7FC
P 4150 2000
F 0 "#PWR0108" H 4150 1750 50  0001 C CNN
F 1 "GND" H 4155 1827 50  0000 C CNN
F 2 "" H 4150 2000 50  0001 C CNN
F 3 "" H 4150 2000 50  0001 C CNN
	1    4150 2000
	1    0    0    -1  
$EndComp
$Comp
L Device:C_Small C3
U 1 1 6124D5F5
P 5000 1950
F 0 "C3" H 5092 1996 50  0000 L CNN
F 1 "0.1uf" H 5092 1905 50  0000 L CNN
F 2 "Capacitor_SMD:C_0805_2012Metric" H 5000 1950 50  0001 C CNN
F 3 "~" H 5000 1950 50  0001 C CNN
	1    5000 1950
	1    0    0    -1  
$EndComp
$Comp
L power:GND #PWR0109
U 1 1 6124D5FB
P 5000 2100
F 0 "#PWR0109" H 5000 1850 50  0001 C CNN
F 1 "GND" H 5005 1927 50  0000 C CNN
F 2 "" H 5000 2100 50  0001 C CNN
F 3 "" H 5000 2100 50  0001 C CNN
	1    5000 2100
	1    0    0    -1  
$EndComp
Wire Wire Line
	5000 2100 5000 2050
Wire Wire Line
	6000 1900 5900 1900
Wire Wire Line
	5900 1900 5900 1800
Wire Wire Line
	5900 1800 5000 1800
Wire Wire Line
	5000 1800 5000 1850
$Comp
L Device:Crystal_GND24_Small Y1
U 1 1 6127068B
P 4700 1600
F 0 "Y1" V 4654 1744 50  0000 L CNN
F 1 "16 MHz" V 4745 1744 50  0000 L CNN
F 2 "Crystal:Crystal_SMD_3225-4Pin_3.2x2.5mm" H 4700 1600 50  0001 C CNN
F 3 "~" H 4700 1600 50  0001 C CNN
	1    4700 1600
	0    1    1    0   
$EndComp
Wire Wire Line
	6000 1700 4700 1700
Wire Wire Line
	6000 1500 4700 1500
Wire Wire Line
	4600 1600 4550 1600
Wire Wire Line
	4550 1600 4550 1800
Wire Wire Line
	4550 1800 4800 1800
Wire Wire Line
	4800 1800 4800 1600
Wire Wire Line
	4550 1800 4550 2000
Wire Wire Line
	4550 2000 4150 2000
Connection ~ 4550 1800
Wire Wire Line
	4700 1500 4400 1500
Connection ~ 4700 1500
Wire Wire Line
	4400 1700 4700 1700
Connection ~ 4700 1700
Wire Wire Line
	4200 1500 4150 1500
Wire Wire Line
	4150 1500 4150 1700
Connection ~ 4150 2000
Wire Wire Line
	4200 1700 4150 1700
Connection ~ 4150 1700
Wire Wire Line
	4150 1700 4150 2000
$Comp
L power:GND #PWR0110
U 1 1 612CFB9B
P 5150 1250
F 0 "#PWR0110" H 5150 1000 50  0001 C CNN
F 1 "GND" H 5155 1077 50  0000 C CNN
F 2 "" H 5150 1250 50  0001 C CNN
F 3 "" H 5150 1250 50  0001 C CNN
	1    5150 1250
	1    0    0    -1  
$EndComp
$Comp
L Switch:SW_Push SW1
U 1 1 612D58E2
P 5550 1300
F 0 "SW1" H 5550 1585 50  0000 C CNN
F 1 "SW_Push" H 5550 1494 50  0000 C CNN
F 2 "random-keyboard-parts:SKQG-1155865" H 5550 1500 50  0001 C CNN
F 3 "~" H 5550 1500 50  0001 C CNN
	1    5550 1300
	1    0    0    -1  
$EndComp
Wire Wire Line
	5350 1300 5300 1300
Wire Wire Line
	5300 1300 5300 1250
Wire Wire Line
	5300 1250 5150 1250
Wire Wire Line
	5750 1300 5850 1300
$Comp
L Device:R_Small R1
U 1 1 612E5C0C
P 5850 1100
F 0 "R1" H 5791 1054 50  0000 R CNN
F 1 "10K" H 5791 1145 50  0000 R CNN
F 2 "Resistor_SMD:R_0805_2012Metric" H 5850 1100 50  0001 C CNN
F 3 "~" H 5850 1100 50  0001 C CNN
	1    5850 1100
	-1   0    0    1   
$EndComp
Wire Wire Line
	6400 900  5850 900 
Wire Wire Line
	5850 900  5850 1000
Connection ~ 6400 900 
Wire Wire Line
	5850 1200 5850 1300
Connection ~ 5850 1300
Wire Wire Line
	5850 1300 6000 1300
$Comp
L Device:C_Small C1
U 1 1 6120AC1D
P 4300 1500
F 0 "C1" H 4392 1546 50  0000 L CNN
F 1 "22pf" H 4392 1455 50  0000 L CNN
F 2 "Capacitor_SMD:C_0805_2012Metric" H 4300 1500 50  0001 C CNN
F 3 "~" H 4300 1500 50  0001 C CNN
	1    4300 1500
	0    -1   -1   0   
$EndComp
$Comp
L Device:C_Small C2
U 1 1 6120B748
P 4300 1700
F 0 "C2" H 4392 1746 50  0000 L CNN
F 1 "22pf" H 4392 1655 50  0000 L CNN
F 2 "Capacitor_SMD:C_0805_2012Metric" H 4300 1700 50  0001 C CNN
F 3 "~" H 4300 1700 50  0001 C CNN
	1    4300 1700
	0    1    1    0   
$EndComp
$Comp
L Device:R_Small R4
U 1 1 613142D1
P 5600 3300
F 0 "R4" V 5404 3300 50  0000 C CNN
F 1 "1K" V 5495 3300 50  0000 C CNN
F 2 "Resistor_SMD:R_0805_2012Metric" H 5600 3300 50  0001 C CNN
F 3 "~" H 5600 3300 50  0001 C CNN
	1    5600 3300
	0    1    1    0   
$EndComp
$Comp
L power:GND #PWR0111
U 1 1 61316DAD
P 5250 3250
F 0 "#PWR0111" H 5250 3000 50  0001 C CNN
F 1 "GND" H 5255 3077 50  0000 C CNN
F 2 "" H 5250 3250 50  0001 C CNN
F 3 "" H 5250 3250 50  0001 C CNN
	1    5250 3250
	1    0    0    -1  
$EndComp
Wire Wire Line
	6000 3300 5700 3300
Wire Wire Line
	5500 3300 5350 3300
Wire Wire Line
	5350 3300 5350 3250
Wire Wire Line
	5350 3250 5250 3250
Wire Wire Line
	1500 4800 1700 4800
Wire Wire Line
	1500 4500 1700 4500
Wire Wire Line
	2300 4800 1900 4800
Wire Wire Line
	2300 4750 2300 4800
Wire Wire Line
	2300 4500 2300 4550
Wire Wire Line
	1900 4500 2300 4500
$Comp
L Device:C_Small C8
U 1 1 613378C8
P 2300 4650
F 0 "C8" H 2392 4696 50  0000 L CNN
F 1 "10uf" H 2392 4605 50  0000 L CNN
F 2 "Capacitor_SMD:C_0805_2012Metric" H 2300 4650 50  0001 C CNN
F 3 "~" H 2300 4650 50  0001 C CNN
	1    2300 4650
	1    0    0    -1  
$EndComp
$Comp
L Device:C_Small C7
U 1 1 611D4104
P 1900 4650
F 0 "C7" H 1992 4696 50  0000 L CNN
F 1 "0.1uf" H 1992 4605 50  0000 L CNN
F 2 "Capacitor_SMD:C_0805_2012Metric" H 1900 4650 50  0001 C CNN
F 3 "~" H 1900 4650 50  0001 C CNN
	1    1900 4650
	1    0    0    -1  
$EndComp
Wire Wire Line
	1900 4500 1900 4550
Wire Wire Line
	1900 4800 1900 4750
Wire Wire Line
	1700 4500 1900 4500
Connection ~ 1700 4500
Connection ~ 1900 4500
Wire Wire Line
	1900 4800 1700 4800
Connection ~ 1900 4800
Connection ~ 1700 4800
Wire Wire Line
	1100 4500 1500 4500
Connection ~ 1500 4500
Wire Wire Line
	1500 4800 1100 4800
Connection ~ 1500 4800
$Comp
L power:GND #PWR0112
U 1 1 6138FA27
P 5600 2800
F 0 "#PWR0112" H 5600 2550 50  0001 C CNN
F 1 "GND" H 5605 2627 50  0000 C CNN
F 2 "" H 5600 2800 50  0001 C CNN
F 3 "" H 5600 2800 50  0001 C CNN
	1    5600 2800
	1    0    0    -1  
$EndComp
$Comp
L Device:C_Small C4
U 1 1 613973F5
P 5600 2650
F 0 "C4" H 5692 2696 50  0000 L CNN
F 1 "1uf" H 5692 2605 50  0000 L CNN
F 2 "Capacitor_SMD:C_0805_2012Metric" H 5600 2650 50  0001 C CNN
F 3 "~" H 5600 2650 50  0001 C CNN
	1    5600 2650
	1    0    0    -1  
$EndComp
Wire Wire Line
	5900 2550 5600 2550
Wire Wire Line
	5600 2800 5600 2750
$Comp
L MCU_Microchip_AVR:AT90USB1286-AU U1
U 1 1 61141855
P 6600 3000
F 0 "U1" H 6600 911 50  0000 C CNN
F 1 "AT90USB1286-AU" H 6600 820 50  0000 C CNN
F 2 "Package_QFP:TQFP-64_14x14mm_P0.8mm" H 6600 3000 50  0001 C CIN
F 3 "http://ww1.microchip.com/downloads/en/DeviceDoc/doc7593.pdf" H 6600 3000 50  0001 C CNN
	1    6600 3000
	1    0    0    -1  
$EndComp
Wire Wire Line
	6000 2600 5900 2600
Wire Wire Line
	5900 2600 5900 2550
Text GLabel 7300 2800 2    50   Input ~ 0
R0
Text GLabel 7300 2700 2    50   Input ~ 0
R1
Text GLabel 7300 2600 2    50   Input ~ 0
R2
Text GLabel 7300 2500 2    50   Input ~ 0
R3
Text GLabel 7300 2400 2    50   Input ~ 0
R4
Text GLabel 7300 2300 2    50   Input ~ 0
R5
Text GLabel 7300 2200 2    50   Input ~ 0
R6
Wire Wire Line
	7200 3700 7300 3700
Wire Wire Line
	7200 3800 7300 3800
Wire Wire Line
	7200 2000 7300 2000
Wire Wire Line
	7200 1900 7300 1900
Wire Wire Line
	7200 1800 7300 1800
Wire Wire Line
	7200 1700 7300 1700
Wire Wire Line
	7200 1600 7300 1600
Wire Wire Line
	7200 1500 7300 1500
Wire Wire Line
	7200 2800 7300 2800
Wire Wire Line
	7200 2700 7300 2700
Wire Wire Line
	7200 2600 7300 2600
Wire Wire Line
	7200 2500 7300 2500
Wire Wire Line
	7200 2400 7300 2400
Wire Wire Line
	7200 2300 7300 2300
Wire Wire Line
	7200 2200 7300 2200
$Comp
L power:+5V #PWR0104
U 1 1 6118737F
P 3100 950
F 0 "#PWR0104" H 3100 800 50  0001 C CNN
F 1 "+5V" H 3115 1123 50  0000 C CNN
F 2 "" H 3100 950 50  0001 C CNN
F 3 "" H 3100 950 50  0001 C CNN
	1    3100 950 
	1    0    0    -1  
$EndComp
$Comp
L Device:Polyfuse_Small F1
U 1 1 613DD754
P 2400 1050
F 0 "F1" V 2195 1050 50  0000 C CNN
F 1 "500mA" V 2286 1050 50  0000 C CNN
F 2 "Fuse:Fuse_1206_3216Metric" H 2450 850 50  0001 L CNN
F 3 "~" H 2400 1050 50  0001 C CNN
	1    2400 1050
	0    1    1    0   
$EndComp
Wire Wire Line
	7200 3600 7300 3600
Wire Wire Line
	7200 3500 7300 3500
Wire Wire Line
	7200 3400 7300 3400
Wire Wire Line
	7200 3300 7300 3300
Wire Wire Line
	7200 3200 7300 3200
Wire Wire Line
	7200 3100 7300 3100
Wire Wire Line
	6000 3500 5900 3500
Wire Wire Line
	7200 2900 7300 2900
Text GLabel 7300 3600 2    50   Input ~ 0
C7
Text GLabel 7300 3500 2    50   Input ~ 0
C6
Text GLabel 7300 3400 2    50   Input ~ 0
C5
Text GLabel 7300 3300 2    50   Input ~ 0
C4
Text GLabel 7300 3200 2    50   Input ~ 0
C3
Text GLabel 7300 3100 2    50   Input ~ 0
C2
Text GLabel 5900 3500 0    50   Input ~ 0
C1
Text GLabel 7300 2900 2    50   Input ~ 0
C0
$Comp
L Type-C:HRO-TYPE-C-31-M-12 USB1
U 1 1 615302E0
P 1300 1500
F 0 "USB1" H 1133 2297 60  0000 C CNN
F 1 "HRO-TYPE-C-31-M-12" H 1133 2191 60  0000 C CNN
F 2 "Type-C:HRO-TYPE-C-31-M-12" H 1300 1500 60  0001 C CNN
F 3 "" H 1300 1500 60  0001 C CNN
	1    1300 1500
	1    0    0    -1  
$EndComp
$Comp
L Power_Protection:PRTR5V0U2X D11
U 1 1 6153FEAF
P 2650 2500
F 0 "D11" V 2604 3044 50  0000 L CNN
F 1 "PRTR5V0U2X" V 2695 3044 50  0000 L CNN
F 2 "Package_TO_SOT_SMD:SOT-143" H 2710 2500 50  0001 C CNN
F 3 "https://assets.nexperia.com/documents/data-sheet/PRTR5V0U2X.pdf" H 2710 2500 50  0001 C CNN
	1    2650 2500
	0    1    1    0   
$EndComp
NoConn ~ 1400 1150
Wire Wire Line
	6000 2300 5900 2300
Wire Wire Line
	6000 2400 5900 2400
Wire Wire Line
	2500 1450 2450 1450
Wire Wire Line
	2500 1550 2450 1550
Wire Wire Line
	1400 1450 1500 1450
Wire Wire Line
	1400 1650 1500 1650
Wire Wire Line
	1500 1650 1500 1450
Connection ~ 1500 1450
Wire Wire Line
	1500 1450 2000 1450
Wire Wire Line
	1400 1550 1600 1550
Wire Wire Line
	1400 1350 1600 1350
Wire Wire Line
	1600 1350 1600 1550
Connection ~ 1600 1550
Wire Wire Line
	1600 1550 2150 1550
$Comp
L Device:R_Small R5
U 1 1 61640A5D
P 1600 1250
F 0 "R5" V 1500 1250 50  0000 C CNN
F 1 "5K1" V 1600 1250 50  0000 C CNN
F 2 "Resistor_SMD:R_0805_2012Metric" H 1600 1250 50  0001 C CNN
F 3 "~" H 1600 1250 50  0001 C CNN
	1    1600 1250
	0    1    1    0   
$EndComp
$Comp
L Device:R_Small R6
U 1 1 6164E502
P 1600 1850
F 0 "R6" V 1500 1850 50  0000 C CNN
F 1 "5K1" V 1600 1850 50  0000 C CNN
F 2 "Resistor_SMD:R_0805_2012Metric" H 1600 1850 50  0001 C CNN
F 3 "~" H 1600 1850 50  0001 C CNN
	1    1600 1850
	0    1    1    0   
$EndComp
NoConn ~ 1400 1750
Wire Wire Line
	1400 1250 1500 1250
Wire Wire Line
	1400 1850 1500 1850
Wire Wire Line
	1400 950  1800 950 
Wire Wire Line
	1800 950  1800 1250
Wire Wire Line
	1800 1250 1700 1250
Wire Wire Line
	1800 1250 1800 1850
Wire Wire Line
	1800 1850 1700 1850
Connection ~ 1800 1250
Wire Wire Line
	1400 2150 1800 2150
Wire Wire Line
	1800 2150 1800 2050
Connection ~ 1800 2150
Connection ~ 1800 1850
Wire Wire Line
	1400 2050 1800 2050
Connection ~ 1800 2050
Wire Wire Line
	1800 2050 1800 1850
Wire Wire Line
	1800 2150 1800 2500
Wire Wire Line
	2150 2500 1800 2500
Connection ~ 1800 2500
Wire Wire Line
	1800 2500 1800 2650
Wire Wire Line
	2650 2000 2650 1900
Wire Wire Line
	2650 1900 2150 1900
Wire Wire Line
	2150 1900 2150 1550
Connection ~ 2150 1550
Wire Wire Line
	2150 1550 2250 1550
Wire Wire Line
	2000 1450 2000 3050
Wire Wire Line
	2000 3050 2650 3050
Wire Wire Line
	2650 3050 2650 3000
Connection ~ 2000 1450
Wire Wire Line
	2000 1450 2250 1450
$Comp
L Device:D_Schottky D10
U 1 1 617012DA
P 2800 1050
F 0 "D10" H 2800 834 50  0000 C CNN
F 1 "D_Schottky" H 2800 925 50  0000 C CNN
F 2 "Diode_SMD:D_SOD-123" H 2800 1050 50  0001 C CNN
F 3 "~" H 2800 1050 50  0001 C CNN
	1    2800 1050
	-1   0    0    1   
$EndComp
$Comp
L power:VCC #PWR0113
U 1 1 6170C6A8
P 2150 950
F 0 "#PWR0113" H 2150 800 50  0001 C CNN
F 1 "VCC" H 2167 1123 50  0000 C CNN
F 2 "" H 2150 950 50  0001 C CNN
F 3 "" H 2150 950 50  0001 C CNN
	1    2150 950 
	1    0    0    -1  
$EndComp
Wire Wire Line
	2150 950  2150 1050
Wire Wire Line
	2150 1050 2300 1050
Wire Wire Line
	2500 1050 2650 1050
Wire Wire Line
	2950 1050 3100 1050
Wire Wire Line
	3100 1050 3100 950 
$Comp
L power:VCC #PWR0114
U 1 1 6177984A
P 3150 2350
F 0 "#PWR0114" H 3150 2200 50  0001 C CNN
F 1 "VCC" H 3167 2523 50  0000 C CNN
F 2 "" H 3150 2350 50  0001 C CNN
F 3 "" H 3150 2350 50  0001 C CNN
	1    3150 2350
	1    0    0    -1  
$EndComp
Wire Wire Line
	3150 2350 3150 2500
Wire Wire Line
	1400 1950 1900 1950
Wire Wire Line
	1900 1950 1900 1050
Wire Wire Line
	1900 1050 1400 1050
$Comp
L power:VCC #PWR0115
U 1 1 617A0FC9
P 1900 950
F 0 "#PWR0115" H 1900 800 50  0001 C CNN
F 1 "VCC" H 1917 1123 50  0000 C CNN
F 2 "" H 1900 950 50  0001 C CNN
F 3 "" H 1900 950 50  0001 C CNN
	1    1900 950 
	1    0    0    -1  
$EndComp
Wire Wire Line
	1900 950  1900 1050
Connection ~ 1900 1050
$Sheet
S 8350 1200 700  450 
U 6187F83E
F0 "mkb120-keys" 50
F1 "mkb120-keys.sch" 50
$EndSheet
Text GLabel 7300 1500 2    50   Input ~ 0
C15
Text GLabel 7300 1600 2    50   Input ~ 0
C14
Text GLabel 7300 1700 2    50   Input ~ 0
C13
Text GLabel 7300 1800 2    50   Input ~ 0
C12
Text GLabel 7300 1900 2    50   Input ~ 0
C11
Text GLabel 7300 2000 2    50   Input ~ 0
C10
Text GLabel 7300 3800 2    50   Input ~ 0
C9
Text GLabel 7300 3700 2    50   Input ~ 0
C8
Wire Wire Line
	7200 1400 7300 1400
Wire Wire Line
	7200 1300 7300 1300
Wire Wire Line
	6000 4700 5900 4700
Wire Wire Line
	6000 4600 5900 4600
Wire Wire Line
	6000 4500 5900 4500
Wire Wire Line
	6000 4400 5900 4400
Wire Wire Line
	6000 4300 5900 4300
Wire Wire Line
	6000 4200 5900 4200
Text GLabel 5900 4200 0    50   Input ~ 0
C23
Text GLabel 5900 4300 0    50   Input ~ 0
C22
Text GLabel 5900 4400 0    50   Input ~ 0
C21
Text GLabel 5900 4500 0    50   Input ~ 0
C20
Text GLabel 5900 4600 0    50   Input ~ 0
C19
Text GLabel 5900 4700 0    50   Input ~ 0
C18
Text GLabel 7300 1300 2    50   Input ~ 0
C17
Text GLabel 7300 1400 2    50   Input ~ 0
C16
$EndSCHEMATC
